spdif/spdif.sim/sim_1/behav/xsim/xsim_dump.vcd
$date
   Sat Nov  2 15:41:57 2019
$end
$version
  2018.3
$end
$timescale
  1ps
$end
$scope module tb_spdif_topV2 $end
$var wire 1 ! spdif_out $end
$upscope $end
$enddefinitions $end
#0
$dumpvars
1!
$end
#13447255000
0!
#13447605000
1!
#13447785000
0!
#13448135000
1!
#13448495000
0!
#13448845000
1!
#13449205000
0!
#13449555000
1!
#13449915000
0!
#13450265000
1!
#13450615000
0!
#13450975000
1!
#13451155000
0!
#13451325000
1!
#13451685000
0!
#13452035000
1!
#13452215000
0!
#13452395000
1!
#13452565000
0!
#13452745000
1!
#13452925000
0!
#13453095000
1!
#13453275000
0!
#13453455000
1!
#13453805000
0!
#13453985000
1!
#13454165000
0!
#13454335000
1!
#13454515000
0!
#13454695000
1!
#13454875000
0!
#13455225000
1!
#13455575000
0!
#13455755000
1!
#13455935000
0!
#13456115000
1!
#13456285000
0!
#13456645000
1!
#13456995000
0!
#13457355000
1!
#13457705000
0!
#13458055000
1!
#13458595000
0!
#13459125000
1!
#13459295000
0!
#13459475000
1!
#13459835000
0!
#13460185000
1!
#13460545000
0!
#13460895000
1!
#13461245000
0!
#13461605000
1!
#13461955000
0!
#13462315000
1!
#13462665000
0!
#13463025000
1!
#13463195000
0!
#13463375000
1!
#13463725000
0!
#13464085000
1!
#13464265000
0!
#13464435000
1!
#13464615000
0!
#13464795000
1!
#13465145000
0!
#13465505000
1!
#13465675000
0!
#13465855000
1!
#13466035000
0!
#13466205000
1!
#13466565000
0!
#13466915000
1!
#13467095000
0!
#13467275000
1!
#13467445000
0!
#13467625000
1!
#13467985000
0!
#13468335000
1!
#13468685000
0!
#13469045000
1!
#13469225000
0!
#13469395000
1!
#13469925000
0!
#13470285000
1!
#13470465000
0!
#13470815000
1!
#13471165000
0!
#13471525000
1!
#13471875000
0!
#13472235000
1!
#13472585000
0!
#13472945000
1!
#13473295000
0!
#13473645000
1!
#13474005000
0!
#13474355000
1!
#13474535000
0!
#13474715000
1!
#13475065000
0!
#13475425000
1!
#13475595000
0!
#13475775000
1!
#13475955000
0!
#13476125000
1!
#13476485000
0!
#13476835000
1!
#13477015000
0!
#13477195000
1!
#13477365000
0!
#13477545000
1!
#13477905000
0!
#13478255000
1!
#13478435000
0!
#13478605000
1!
#13478785000
0!
#13478965000
1!
#13479315000
0!
#13479675000
1!
#13480025000
0!
#13480385000
1!
#13480555000
0!
#13480735000
1!
#13481265000
0!
#13481795000
1!
#13481975000
0!
#13482155000
1!
#13482505000
0!
#13482865000
1!
#13483215000
0!
#13483575000
1!
#13483925000
0!
#13484275000
1!
#13484635000
0!
#13484985000
1!
#13485165000
0!
#13485345000
1!
#13485515000
0!
#13485695000
1!
#13485875000
0!
#13486055000
1!
#13486225000
0!
#13486405000
1!
#13486585000
0!
#13486755000
1!
#13486935000
0!
#13487115000
1!
#13487465000
0!
#13487825000
1!
#13487995000
0!
#13488175000
1!
#13488535000
0!
#13488705000
1!
#13488885000
0!
#13489235000
1!
#13489595000
0!
#13489775000
1!
#13489945000
0!
#13490125000
1!
#13490305000
0!
#13490655000
1!
#13491015000
0!
#13491365000
1!
#13491715000
0!
#13492075000
1!
#13492605000
0!
#13492955000
1!
#13493135000
0!
#13493495000
1!
#13493845000
0!
#13494195000
1!
#13494555000
0!
#13494905000
1!
#13495265000
0!
#13495615000
1!
#13495975000
0!
#13496325000
1!
#13496505000
0!
#13496675000
1!
#13496855000
0!
#13497035000
1!
#13497215000
0!
#13497385000
1!
#13497565000
0!
#13497745000
1!
#13497915000
0!
#13498095000
1!
#13498275000
0!
#13498455000
1!
#13498805000
0!
#13499155000
1!
#13499335000
0!
#13499515000
1!
#13499865000
0!
#13500045000
1!
#13500225000
0!
#13500575000
1!
#13500935000
0!
#13501105000
1!
#13501285000
0!
#13501465000
1!
#13501635000
0!
#13501995000
1!
#13502345000
0!
#13502705000
1!
#13503055000
0!
#13503415000
1!
#13503945000
0!
#13504475000
1!
#13504655000
0!
#13504825000
1!
#13505185000
0!
#13505535000
1!
#13505895000
0!
#13506245000
1!
#13506605000
0!
#13506955000
1!
#13507305000
0!
#13507665000
1!
#13508015000
0!
#13508195000
1!
#13508375000
0!
#13508725000
1!
#13508905000
0!
#13509085000
1!
#13509435000
0!
#13509785000
1!
#13510145000
0!
#13510495000
1!
#13510855000
0!
#13511205000
1!
#13511385000
0!
#13511565000
1!
#13511915000
0!
#13512265000
1!
#13512445000
0!
#13512625000
1!
#13512805000
0!
#13512975000
1!
#13513335000
0!
#13513685000
1!
#13514045000
0!
#13514395000
1!
#13514575000
0!
#13514745000
1!
#13515285000
0!
#13515635000
1!
#13515815000
0!
#13516165000
1!
#13516525000
0!
#13516875000
1!
#13517225000
0!
#13517585000
1!
#13517935000
0!
#13518295000
1!
#13518645000
0!
#13519005000
1!
#13519355000
0!
#13519535000
1!
#13519705000
0!
#13520065000
1!
#13520245000
0!
#13520415000
1!
#13520775000
0!
#13521125000
1!
#13521485000
0!
#13521835000
1!
#13522185000
0!
#13522545000
1!
#13522725000
0!
#13522895000
1!
#13523255000
0!
#13523605000
1!
#13523785000
0!
#13523965000
1!
#13524135000
0!
#13524315000
1!
#13524665000
0!
#13525025000
1!
#13525375000
0!
#13525735000
1!
#13525905000
0!
#13526085000
1!
#13526615000
0!
#13527155000
1!
#13527325000
0!
#13527505000
1!
#13527855000
0!
#13528215000
1!
#13528565000
0!
#13528925000
1!
#13529275000
0!
#13529635000
1!
#13529985000
0!
#13530335000
1!
#13530695000
0!
#13530875000
1!
#13531045000
0!
#13531225000
1!
#13531405000
0!
#13531755000
1!
#13532115000
0!
#13532465000
1!
#13532645000
0!
#13532815000
1!
#13532995000
0!
#13533175000
1!
#13533525000
0!
#13533705000
1!
#13533885000
0!
#13534235000
1!
#13534595000
0!
#13534945000
1!
#13535125000
0!
#13535295000
1!
#13535475000
0!
#13535655000
1!
#13536005000
0!
#13536365000
1!
#13536715000
0!
#13537075000
1!
#13537245000
0!
#13537425000
1!
#13537955000
0!
#13538315000
1!
#13538485000
0!
#13538845000
1!
#13539195000
0!
#13539555000
1!
#13539905000
0!
#13540255000
1!
#13540615000
0!
#13540965000
1!
#13541325000
0!
#13541675000
1!
#13542035000
0!
#13542205000
1!
#13542385000
0!
#13542565000
1!
#13542735000
0!
#13543095000
1!
#13543445000
0!
#13543805000
1!
#13543975000
0!
#13544155000
1!
#13544335000
0!
#13544515000
1!
#13544865000
0!
#13545045000
1!
#13545215000
0!
#13545575000
1!
#13545925000
0!
#13546285000
1!
#13546455000
0!
#13546635000
1!
#13546815000
0!
#13546995000
1!
#13547345000
0!
#13547695000
1!
#13548055000
0!
#13548405000
1!
#13548585000
0!
#13548765000
1!
#13549295000
0!
#13549825000
1!
#13550005000
0!
#13550185000
1!
#13550535000
0!
#13550885000
1!
#13551245000
0!
#13551595000
1!
#13551955000
0!
#13552305000
1!
#13552665000
0!
#13553015000
1!
#13553195000
0!
#13553365000
1!
#13553545000
0!
#13553725000
1!
#13554075000
0!
#13554435000
1!
#13554605000
0!
#13554785000
1!
#13554965000
0!
#13555145000
1!
#13555315000
0!
#13555495000
1!
#13555845000
0!
#13556025000
1!
#13556205000
0!
#13556555000
1!
#13556915000
0!
#13557265000
1!
#13557625000
0!
#13557795000
1!
#13557975000
0!
#13558155000
1!
#13558325000
0!
#13558685000
1!
#13559035000
0!
#13559395000
1!
#13559745000
0!
#13560105000
1!
#13560635000
0!
#13560985000
1!
#13561165000
0!
#13561515000
1!
#13561875000
0!
#13562225000
1!
#13562585000
0!
#13562935000
1!
#13563285000
0!
#13563645000
1!
#13563995000
0!
#13564355000
1!
#13564525000
0!
#13564705000
1!
#13564885000
0!
#13565065000
1!
#13565415000
0!
#13565765000
1!
#13565945000
0!
#13566125000
1!
#13566305000
0!
#13566475000
1!
#13566655000
0!
#13566835000
1!
#13567185000
0!
#13567365000
1!
#13567545000
0!
#13567895000
1!
#13568245000
0!
#13568605000
1!
#13568955000
0!
#13569135000
1!
#13569315000
0!
#13569485000
1!
#13569665000
0!
#13570025000
1!
#13570375000
0!
#13570725000
1!
#13571085000
0!
#13571435000
1!
#13571975000
0!
#13572505000
1!
#13572675000
0!
#13572855000
1!
#13573215000
0!
#13573565000
1!
#13573915000
0!
#13574275000
1!
#13574625000
0!
#13574985000
1!
#13575335000
0!
#13575695000
1!
#13576045000
0!
#13576395000
1!
#13576755000
0!
#13577105000
1!
#13577285000
0!
#13577465000
1!
#13577815000
0!
#13578175000
1!
#13578525000
0!
#13578875000
1!
#13579235000
0!
#13579585000
1!
#13579945000
0!
#13580295000
1!
#13580475000
0!
#13580655000
1!
#13580825000
0!
#13581005000
1!
#13581355000
0!
#13581715000
1!
#13582065000
0!
#13582425000
1!
#13582595000
0!
#13582775000
1!
#13583305000
0!
#13583665000
1!
#13583835000
0!
#13584195000
1!
#13584545000
0!
#13584905000
1!
#13585255000
0!
#13585615000
1!
#13585965000
0!
#13586315000
1!
#13586675000
0!
#13587025000
1!
#13587385000
0!
#13587735000
1!
#13588095000
0!
#13588445000
1!
#13588625000
0!
#13588795000
1!
#13589155000
0!
#13589505000
1!
#13589865000
0!
#13590215000
1!
#13590575000
0!
#13590925000
1!
#13591275000
0!
#13591635000
1!
#13591815000
0!
#13591985000
1!
#13592165000
0!
#13592345000
1!
#13592695000
0!
#13593055000
1!
#13593405000
0!
#13593765000
1!
#13593935000
0!
#13594115000
1!
#13594645000
0!
#13595175000
1!
#13595355000
0!
#13595535000
1!
#13595885000
0!
#13596245000
1!
#13596595000
0!
#13596945000
1!
#13597305000
0!
#13597655000
1!
#13598015000
0!
#13598365000
1!
#13598545000
0!
#13598725000
1!
#13598895000
0!
#13599075000
1!
#13599255000
0!
#13599425000
1!
#13599605000
0!
#13599785000
1!
#13599965000
0!
#13600135000
1!
#13600495000
0!
#13600845000
1!
#13601025000
0!
#13601205000
1!
#13601555000
0!
#13601735000
1!
#13601905000
0!
#13602085000
1!
#13602265000
0!
#13602445000
1!
#13602615000
0!
#13602795000
1!
#13602975000
0!
#13603325000
1!
#13603505000
0!
#13603685000
1!
#13604035000
0!
#13604385000
1!
#13604745000
0!
#13605095000
1!
#13605275000
0!
#13605455000
1!
#13605985000
0!
#13606335000
1!
#13606515000
0!
#13606865000
1!
#13607225000
0!
#13607575000
1!
#13607935000
0!
#13608285000
1!
#13608645000
0!
#13608995000
1!
#13609345000
0!
#13609705000
1!
#13609885000
0!
#13610055000
1!
#13610235000
0!
#13610415000
1!
#13610585000
0!
#13610765000
1!
#13610945000
0!
#13611125000
1!
#13611295000
0!
#13611475000
1!
#13611825000
0!
#13612185000
1!
#13612365000
0!
#13612535000
1!
#13612895000
0!
#13613065000
1!
#13613245000
0!
#13613425000
1!
#13613605000
0!
#13613775000
1!
#13613955000
0!
#13614135000
1!
#13614305000
0!
#13614665000
1!
#13614845000
0!
#13615015000
1!
#13615375000
0!
#13615725000
1!
#13616085000
0!
#13616435000
1!
#13616615000
0!
#13616795000
1!
#13617325000
0!
#13617855000
1!
#13618035000
0!
#13618205000
1!
#13618565000
0!
#13618915000
1!
#13619275000
0!
#13619625000
1!
#13619975000
0!
#13620335000
1!
#13620685000
0!
#13621045000
1!
#13621215000
0!
#13621395000
1!
#13621575000
0!
#13621755000
1!
#13621925000
0!
#13622105000
1!
#13622285000
0!
#13622455000
1!
#13622635000
0!
#13622815000
1!
#13623165000
0!
#13623525000
1!
#13623875000
0!
#13624055000
1!
#13624235000
0!
#13624585000
1!
#13624765000
0!
#13624935000
1!
#13625115000
0!
#13625295000
1!
#13625475000
0!
#13625645000
1!
#13626005000
0!
#13626175000
1!
#13626355000
0!
#13626715000
1!
#13627065000
0!
#13627415000
1!
#13627775000
0!
#13628125000
1!
#13628655000
0!
#13629015000
1!
#13629195000
0!
#13629545000
1!
#13629895000
0!
#13630255000
1!
#13630605000
0!
#13630965000
1!
#13631315000
0!
#13631675000
1!
#13632025000
0!
#13632375000
1!
#13632555000
0!
#13632735000
1!
#13632915000
0!
#13633085000
1!
#13633265000
0!
#13633445000
1!
#13633615000
0!
#13633795000
1!
#13633975000
0!
#13634155000
1!
#13634505000
0!
#13634855000
1!
#13635215000
0!
#13635395000
1!
#13635565000
0!
#13635925000
1!
#13636095000
0!
#13636275000
1!
#13636455000
0!
#13636635000
1!
#13636805000
0!
#13636985000
1!
#13637335000
0!
#13637515000
1!
#13637695000
0!
#13638045000
1!
#13638405000
0!
#13638755000
1!
#13639115000
0!
#13639465000
1!
#13639995000
0!
#13640525000
1!
#13640705000
0!
#13640885000
1!
#13641235000
0!
#13641595000
1!
#13641945000
0!
#13642305000
1!
#13642655000
0!
#13643005000
1!
#13643365000
0!
#13643715000
1!
#13643895000
0!
#13644075000
1!
#13644425000
0!
#13644785000
1!
#13645135000
0!
#13645315000
1!
#13645485000
0!
#13645845000
1!
#13646195000
0!
#13646375000
1!
#13646555000
0!
#13646725000
1!
#13646905000
0!
#13647085000
1!
#13647265000
0!
#13647615000
1!
#13647795000
0!
#13647965000
1!
#13648145000
0!
#13648325000
1!
#13648675000
0!
#13648855000
1!
#13649035000
0!
#13649385000
1!
#13649745000
0!
#13650095000
1!
#13650445000
0!
#13650805000
1!
#13651335000
0!
#13651685000
1!
#13651865000
0!
#13652225000
1!
#13652575000
0!
#13652925000
1!
#13653285000
0!
#13653635000
1!
#13653995000
0!
#13654345000
1!
#13654705000
0!
#13655055000
1!
#13655235000
0!
#13655405000
1!
#13655765000
0!
#13656115000
1!
#13656475000
0!
#13656645000
1!
#13656825000
0!
#13657185000
1!
#13657535000
0!
#13657715000
1!
#13657885000
0!
#13658065000
1!
#13658245000
0!
#13658425000
1!
#13658595000
0!
#13658955000
1!
#13659125000
0!
#13659305000
1!
#13659485000
0!
#13659665000
1!
#13660015000
0!
#13660195000
1!
#13660365000
0!
#13660725000
1!
#13661075000
0!
#13661435000
1!
#13661785000
0!
#13662145000
1!
#13662675000
0!
#13663205000
1!
#13663385000
0!
#13663555000
1!
#13663915000
0!
#13664265000
1!
#13664625000
0!
#13664975000
1!
#13665335000
0!
#13665685000
1!
#13666035000
0!
#13666395000
1!
#13666575000
0!
#13666745000
1!
#13667105000
0!
#13667275000
1!
#13667455000
0!
#13667815000
1!
#13667985000
0!
#13668165000
1!
#13668345000
0!
#13668515000
1!
#13668695000
0!
#13668875000
1!
#13669055000
0!
#13669225000
1!
#13669405000
0!
#13669585000
1!
#13669935000
0!
#13670295000
1!
#13670465000
0!
#13670645000
1!
#13670825000
0!
#13670995000
1!
#13671355000
0!
#13671535000
1!
#13671705000
0!
#13672065000
1!
#13672415000
0!
#13672775000
1!
#13673125000
0!
#13673475000
1!
#13674015000
0!
#13674365000
1!
#13674545000
0!
#13674895000
1!
#13675255000
0!
#13675605000
1!
#13675955000
0!
#13676315000
1!
#13676665000
0!
#13677025000
1!
#13677375000
0!
#13677735000
1!
#13677905000
0!
#13678085000
1!
#13678435000
0!
#13678615000
1!
#13678795000
0!
#13679145000
1!
#13679325000
0!
#13679505000
1!
#13679675000
0!
#13679855000
1!
#13680035000
0!
#13680215000
1!
#13680385000
0!
#13680565000
1!
#13680745000
0!
#13680915000
1!
#13681275000
0!
#13681625000
1!
#13681805000
0!
#13681985000
1!
#13682155000
0!
#13682335000
1!
#13682695000
0!
#13682865000
1!
#13683045000
0!
#13683405000
1!
#13683755000
0!
#13684105000
1!
#13684465000
0!
#13684815000
1!
#13685345000
0!
#13685885000
1!
#13686055000
0!
#13686235000
1!
#13686585000
0!
#13686945000
1!
#13687295000
0!
#13687655000
1!
#13688005000
0!
#13688365000
1!
#13688715000
0!
#13689065000
1!
#13689245000
0!
#13689425000
1!
#13689605000
0!
#13689775000
1!
#13690135000
0!
#13690305000
1!
#13690485000
0!
#13690845000
1!
#13691195000
0!
#13691375000
1!
#13691545000
0!
#13691905000
1!
#13692255000
0!
#13692615000
1!
#13692965000
0!
#13693145000
1!
#13693325000
0!
#13693495000
1!
#13693675000
0!
#13694025000
1!
#13694205000
0!
#13694385000
1!
#13694735000
0!
#13695095000
1!
#13695445000
0!
#13695805000
1!
#13695975000
0!
#13696155000
1!
#13696685000
0!
#13697045000
1!
#13697215000
0!
#13697575000
1!
#13697925000
0!
#13698285000
1!
#13698635000
0!
#13698985000
1!
#13699345000
0!
#13699695000
1!
#13700055000
0!
#13700405000
1!
#13700585000
0!
#13700765000
1!
#13700935000
0!
#13701115000
1!
#13701465000
0!
#13701645000
1!
#13701825000
0!
#13702175000
1!
#13702535000
0!
#13702705000
1!
#13702885000
0!
#13703245000
1!
#13703595000
0!
#13703945000
1!
#13704305000
0!
#13704485000
1!
#13704655000
0!
#13704835000
1!
#13705015000
0!
#13705365000
1!
#13705545000
0!
#13705725000
1!
#13706075000
0!
#13706435000
1!
#13706785000
0!
#13707135000
1!
#13707315000
0!
#13707495000
1!
#13708025000
0!
#13708555000
1!
#13708735000
0!
#13708915000
1!
#13709265000
0!
#13709615000
1!
#13709975000
0!
#13710325000
1!
#13710685000
0!
#13711035000
1!
#13711395000
0!
#13711745000
1!
#13711925000
0!
#13712095000
1!
#13712275000
0!
#13712455000
1!
#13712805000
0!
#13713165000
1!
#13713335000
0!
#13713515000
1!
#13713875000
0!
#13714225000
1!
#13714405000
0!
#13714575000
1!
#13714935000
0!
#13715115000
1!
#13715285000
0!
#13715465000
1!
#13715645000
0!
#13715995000
1!
#13716175000
0!
#13716355000
1!
#13716705000
0!
#13716885000
1!
#13717055000
0!
#13717415000
1!
#13717765000
0!
#13718125000
1!
#13718475000
0!
#13718835000
1!
#13719365000
0!
#13719715000
1!
#13719895000
0!
#13720245000
1!
#13720605000
0!
#13720955000
1!
#13721315000
0!
#13721665000
1!
#13722015000
0!
#13722375000
1!
#13722725000
0!
#13723085000
1!
#13723255000
0!
#13723435000
1!
#13723615000
0!
#13723795000
1!
#13724145000
0!
#13724495000
1!
#13724675000
0!
#13724855000
1!
#13725205000
0!
#13725565000
1!
#13725735000
0!
#13725915000
1!
#13726275000
0!
#13726445000
1!
#13726625000
0!
#13726805000
1!
#13726975000
0!
#13727335000
1!
#13727515000
0!
#13727685000
1!
#13728045000
0!
#13728225000
1!
#13728395000
0!
#13728755000
1!
#13729105000
0!
#13729465000
1!
#13729815000
0!
#13730165000
1!
#13730705000
0!
#13731235000
1!
#13731405000
0!
#13731585000
1!
#13731945000
0!
#13732295000
1!
#13732645000
0!
#13733005000
1!
#13733355000
0!
#13733715000
1!
#13734065000
0!
#13734425000
1!
#13734775000
0!
#13734955000
1!
#13735125000
0!
#13735305000
1!
#13735485000
0!
#13735665000
1!
#13735835000
0!
#13736195000
1!
#13736545000
0!
#13736725000
1!
#13736905000
0!
#13737075000
1!
#13737255000
0!
#13737605000
1!
#13737965000
0!
#13738145000
1!
#13738315000
0!
#13738675000
1!
#13738845000
0!
#13739025000
1!
#13739385000
0!
#13739555000
1!
#13739735000
0!
#13740085000
1!
#13740445000
0!
#13740795000
1!
#13741155000
0!
#13741505000
1!
#13742035000
0!
#13742395000
1!
#13742565000
0!
#13742925000
1!
#13743275000
0!
#13743635000
1!
#13743985000
0!
#13744345000
1!
#13744695000
0!
#13745045000
1!
#13745405000
0!
#13745755000
1!
#13746115000
0!
#13746285000
1!
#13746465000
0!
#13746645000
1!
#13746825000
0!
#13746995000
1!
#13747175000
0!
#13747525000
1!
#13747885000
0!
#13748065000
1!
#13748235000
0!
#13748415000
1!
#13748595000
0!
#13748945000
1!
#13749305000
0!
#13749475000
1!
#13749655000
0!
#13750015000
1!
#13750185000
0!
#13750365000
1!
#13750715000
0!
#13750895000
1!
#13751075000
0!
#13751425000
1!
#13751785000
0!
#13752135000
1!
#13752495000
0!
#13752845000
1!
#13753375000
0!
#13753905000
1!
#13754085000
0!
#13754265000
1!
#13754615000
0!
#13754975000
1!
#13755325000
0!
#13755675000
1!
#13756035000
0!
#13756385000
1!
#13756745000
0!
#13757095000
1!
#13757455000
0!
#13757805000
1!
#13757985000
0!
#13758155000
1!
#13758335000
0!
#13758515000
1!
#13758695000
0!
#13758865000
1!
#13759045000
0!
#13759225000
1!
#13759395000
0!
#13759575000
1!
#13759755000
0!
#13759935000
1!
#13760285000
0!
#13760465000
1!
#13760635000
0!
#13760995000
1!
#13761345000
0!
#13761525000
1!
#13761705000
0!
#13762055000
1!
#13762235000
0!
#13762415000
1!
#13762765000
0!
#13763115000
1!
#13763475000
0!
#13763825000
1!
#13764005000
0!
#13764185000
1!
#13764715000
0!
#13765065000
1!
#13765245000
0!
#13765595000
1!
#13765955000
0!
#13766305000
1!
#13766665000
0!
#13767015000
1!
#13767375000
0!
#13767725000
1!
#13768075000
0!
#13768435000
1!
#13768785000
0!
#13769145000
1!
#13769315000
0!
#13769495000
1!
#13769675000
0!
#13769855000
1!
#13770025000
0!
#13770205000
1!
#13770385000
0!
#13770555000
1!
#13770735000
0!
#13770915000
1!
#13771095000
0!
#13771265000
1!
#13771625000
0!
#13771795000
1!
#13771975000
0!
#13772335000
1!
#13772685000
0!
#13772865000
1!
#13773045000
0!
#13773395000
1!
#13773575000
0!
#13773745000
1!
#13774105000
0!
#13774455000
1!
#13774815000
0!
#13775165000
1!
#13775345000
0!
#13775525000
1!
#13776055000
0!
#13776585000
1!
#13776765000
0!
#13776935000
1!
#13777295000
0!
#13777645000
1!
#13778005000
0!
#13778355000
1!
#13778705000
0!
#13779065000
1!
#13779415000
0!
#13779775000
1!
#13779945000
0!
#13780125000
1!
#13780485000
0!
#13780655000
1!
#13780835000
0!
#13781015000
1!
#13781185000
0!
#13781365000
1!
#13781545000
0!
#13781895000
1!
#13782255000
0!
#13782605000
1!
#13782785000
0!
#13782965000
1!
#13783315000
0!
#13783665000
1!
#13784025000
0!
#13784205000
1!
#13784375000
0!
#13784735000
1!
#13784905000
0!
#13785085000
1!
#13785445000
0!
#13785795000
1!
#13786145000
0!
#13786505000
1!
#13786685000
0!
#13786855000
1!
#13787385000
0!
#13787745000
1!
#13787925000
0!
#13788275000
1!
#13788625000
0!
#13788985000
1!
#13789335000
0!
#13789695000
1!
#13790045000
0!
#13790405000
1!
#13790755000
0!
#13791105000
1!
#13791285000
0!
#13791465000
1!
#13791815000
0!
#13791995000
1!
#13792175000
0!
#13792345000
1!
#13792525000
0!
#13792705000
1!
#13792885000
0!
#13793235000
1!
#13793585000
0!
#13793945000
1!
#13794125000
0!
#13794295000
1!
#13794655000
0!
#13795005000
1!
#13795365000
0!
#13795535000
1!
#13795715000
0!
#13796075000
1!
#13796245000
0!
#13796425000
1!
#13796775000
0!
#13797135000
1!
#13797485000
0!
#13797845000
1!
#13798015000
0!
#13798195000
1!
#13798725000
0!
#13799255000
1!
#13799435000
0!
#13799615000
1!
#13799965000
0!
#13800325000
1!
#13800675000
0!
#13801035000
1!
#13801385000
0!
#13801735000
1!
#13802095000
0!
#13802445000
1!
#13802805000
0!
#13802975000
1!
#13803155000
0!
#13803515000
1!
#13803865000
0!
#13804045000
1!
#13804215000
0!
#13804395000
1!
#13804575000
0!
#13804925000
1!
#13805285000
0!
#13805455000
1!
#13805635000
0!
#13805815000
1!
#13805995000
0!
#13806165000
1!
#13806345000
0!
#13806525000
1!
#13806695000
0!
#13807055000
1!
#13807405000
0!
#13807585000
1!
#13807765000
0!
#13808115000
1!
#13808475000
0!
#13808825000
1!
#13809175000
0!
#13809535000
1!
#13810065000
0!
#13810415000
1!
#13810595000
0!
#13810955000
1!
#13811305000
0!
#13811655000
1!
#13812015000
0!
#13812365000
1!
#13812725000
0!
#13813075000
1!
#13813435000
0!
#13813785000
1!
#13814135000
0!
#13814315000
1!
#13814495000
0!
#13814845000
1!
#13815205000
0!
#13815375000
1!
#13815555000
0!
#13815735000
1!
#13815915000
0!
#13816265000
1!
#13816615000
0!
#13816795000
1!
#13816975000
0!
#13817155000
1!
#13817325000
0!
#13817505000
1!
#13817685000
0!
#13817865000
1!
#13818035000
0!
#13818395000
1!
#13818745000
0!
#13818925000
1!
#13819105000
0!
#13819455000
1!
#13819805000
0!
#13820165000
1!
#13820515000
0!
#13820875000
1!
#13821405000
0!
#13821935000
1!
#13822115000
0!
#13822285000
1!
#13822645000
0!
#13822995000
1!
#13823355000
0!
#13823705000
1!
#13824065000
0!
#13824415000
1!
#13824765000
0!
#13825125000
1!
#13825475000
0!
#13825655000
1!
#13825835000
0!
#13826185000
1!
#13826365000
0!
#13826545000
1!
#13826715000
0!
#13826895000
1!
#13827075000
0!
#13827245000
1!
#13827605000
0!
#13827955000
1!
#13828135000
0!
#13828315000
1!
#13828665000
0!
#13828845000
1!
#13829025000
0!
#13829195000
1!
#13829375000
0!
#13829725000
1!
#13830085000
0!
#13830265000
1!
#13830435000
0!
#13830795000
1!
#13831145000
0!
#13831505000
1!
#13831855000
0!
#13832205000
1!
#13832745000
0!
#13833095000
1!
#13833275000
0!
#13833625000
1!
#13833985000
0!
#13834335000
1!
#13834685000
0!
#13835045000
1!
#13835395000
0!
#13835755000
1!
#13836105000
0!
#13836465000
1!
#13836815000
0!
#13836995000
1!
#13837165000
0!
#13837525000
1!
#13837705000
0!
#13837875000
1!
#13838055000
0!
#13838235000
1!
#13838405000
0!
#13838585000
1!
#13838945000
0!
#13839295000
1!
#13839475000
0!
#13839655000
1!
#13840005000
0!
#13840185000
1!
#13840355000
0!
#13840535000
1!
#13840715000
0!
#13841065000
1!
#13841425000
0!
#13841595000
1!
#13841775000
0!
#13842135000
1!
#13842485000
0!
#13842835000
1!
#13843195000
0!
#13843545000
1!
#13844075000
0!
#13844615000
1!
#13844785000
0!
#13844965000
1!
#13845315000
0!
#13845675000
1!
#13846025000
0!
#13846385000
1!
#13846735000
0!
#13847095000
1!
#13847445000
0!
#13847795000
1!
#13848155000
0!
#13848335000
1!
#13848505000
0!
#13848685000
1!
#13848865000
0!
#13849215000
1!
#13849395000
0!
#13849575000
1!
#13849745000
0!
#13849925000
1!
#13850275000
0!
#13850635000
1!
#13850815000
0!
#13850985000
1!
#13851165000
0!
#13851345000
1!
#13851695000
0!
#13851875000
1!
#13852055000
0!
#13852405000
1!
#13852755000
0!
#13852935000
1!
#13853115000
0!
#13853465000
1!
#13853825000
0!
#13854175000
1!
#13854535000
0!
#13854885000
1!
#13855415000
0!
#13855775000
1!
#13855945000
0!
#13856305000
1!
#13856655000
0!
#13857015000
1!
#13857365000
0!
#13857715000
1!
#13858075000
0!
#13858425000
1!
#13858785000
0!
#13859135000
1!
#13859495000
0!
#13859665000
1!
#13859845000
0!
#13860025000
1!
#13860195000
0!
#13860555000
1!
#13860735000
0!
#13860905000
1!
#13861085000
0!
#13861265000
1!
#13861615000
0!
#13861975000
1!
#13862145000
0!
#13862325000
1!
#13862505000
0!
#13862685000
1!
#13863035000
0!
#13863215000
1!
#13863385000
0!
#13863745000
1!
#13864095000
0!
#13864275000
1!
#13864455000
0!
#13864805000
1!
#13865165000
0!
#13865515000
1!
#13865865000
0!
#13866225000
1!
#13866755000
0!
#13867285000
1!
#13867465000
0!
#13867645000
1!
#13867995000
0!
#13868345000
1!
#13868705000
0!
#13869055000
1!
#13869415000
0!
#13869765000
1!
#13870125000
0!
#13870475000
1!
#13870655000
0!
#13870825000
1!
#13871005000
0!
#13871185000
1!
#13871365000
0!
#13871535000
1!
#13871895000
0!
#13872245000
1!
#13872425000
0!
#13872605000
1!
#13872955000
0!
#13873305000
1!
#13873485000
0!
#13873665000
1!
#13874015000
0!
#13874375000
1!
#13874545000
0!
#13874725000
1!
#13875085000
0!
#13875435000
1!
#13875615000
0!
#13875785000
1!
#13876145000
0!
#13876495000
1!
#13876855000
0!
#13877205000
1!
#13877385000
0!
#13877565000
1!
#13878095000
0!
#13878445000
1!
#13878625000
0!
#13878975000
1!
#13879335000
0!
#13879685000
1!
#13880045000
0!
#13880395000
1!
#13880745000
0!
#13881105000
1!
#13881455000
0!
#13881815000
1!
#13881985000
0!
#13882165000
1!
#13882345000
0!
#13882525000
1!
#13882695000
0!
#13882875000
1!
#13883225000
0!
#13883585000
1!
#13883765000
0!
#13883935000
1!
#13884295000
0!
#13884645000
1!
#13884825000
0!
#13885005000
1!
#13885355000
0!
#13885715000
1!
#13885885000
0!
#13886065000
1!
#13886415000
0!
#13886775000
1!
#13886955000
0!
#13887125000
1!
#13887485000
0!
#13887835000
1!
#13888195000
0!
#13888545000
1!
#13888725000
0!
#13888895000
1!
#13889435000
0!
#13889965000
1!
#13890135000
0!
#13890315000
1!
#13890675000
0!
#13891025000
1!
#13891375000
0!
#13891735000
1!
#13892085000
0!
#13892445000
1!
#13892795000
0!
#13893155000
1!
#13893325000
0!
#13893505000
1!
#13893855000
0!
#13894035000
1!
#13894215000
0!
#13894395000
1!
#13894565000
0!
#13894925000
1!
#13895275000
0!
#13895635000
1!
#13895985000
0!
#13896165000
1!
#13896335000
0!
#13896515000
1!
#13896695000
0!
#13896875000
1!
#13897045000
0!
#13897405000
1!
#13897755000
0!
#13898115000
1!
#13898285000
0!
#13898465000
1!
#13898815000
0!
#13899175000
1!
#13899525000
0!
#13899885000
1!
#13900055000
0!
#13900235000
1!
#13900765000
0!
#13901125000
1!
#13901295000
0!
#13901655000
1!
#13902005000
0!
#13902365000
1!
#13902715000
0!
#13903075000
1!
#13903425000
0!
#13903775000
1!
#13904135000
0!
#13904485000
1!
#13904665000
0!
#13904845000
1!
#13905195000
0!
#13905375000
1!
#13905555000
0!
#13905725000
1!
#13905905000
0!
#13906265000
1!
#13906615000
0!
#13906965000
1!
#13907325000
0!
#13907505000
1!
#13907675000
0!
#13907855000
1!
#13908035000
0!
#13908205000
1!
#13908385000
0!
#13908745000
1!
#13909095000
0!
#13909445000
1!
#13909625000
0!
#13909805000
1!
#13910155000
0!
